{
  "project_info": {
    "project_number": "664315109078",
    "project_id": "nebula-dev-aa1ed",
    "storage_bucket": "nebula-dev-aa1ed.appspot.com"
  },
  "client": [
    {
      "client_info": {
        "mobilesdk_app_id": "1:664315109078:android:c5be2684d061b0efd83377",
        "android_client_info": {
          "package_name": "ch.nebula"
        }
      },
      "oauth_client": [
        {
          "client_id": "664315109078-3lcl15fv2f0pdedc4ht4snjib7eakf3s.apps.googleusercontent.com",
          "client_type": 3
        }
      ],
      "api_key": [
        {
          "current_key": "AIzaSyAHj1FA5v6U6H7ugA1akSc7tVdQ7c7dce8"
        }
      ],
      "services": {
        "appinvite_service": {
          "other_platform_oauth_client": [
            {
              "client_id": "664315109078-3lcl15fv2f0pdedc4ht4snjib7eakf3s.apps.googleusercontent.com",
              "client_type": 3
            }
          ]
        }
      }
    }
  ],
  "configuration_version": "1"
}