{
  "project_info": {
    "project_number": "443740958538",
    "project_id": "nebula-6f3ec",
    "storage_bucket": "nebula-6f3ec.appspot.com"
  },
  "client": [
    {
      "client_info": {
        "mobilesdk_app_id": "1:443740958538:android:df76033202450c1a2e1bb3",
        "android_client_info": {
          "package_name": "ch.nebula"
        }
      },
      "oauth_client": [
        {
          "client_id": "443740958538-kkc9nq73nif8u0fhnd2p97p96dp4fhco.apps.googleusercontent.com",
          "client_type": 3
        }
      ],
      "api_key": [
        {
          "current_key": "AIzaSyBzie-0y1t0tzYBBDMW71e6ffW8FbEbPAU"
        }
      ],
      "services": {
        "appinvite_service": {
          "other_platform_oauth_client": [
            {
              "client_id": "443740958538-kkc9nq73nif8u0fhnd2p97p96dp4fhco.apps.googleusercontent.com",
              "client_type": 3
            }
          ]
        }
      }
    }
  ],
  "configuration_version": "1"
}